auto/common/AppiumWrapper$1.class
auto/common/FluentAssert.class
auto/common/TestListner.class
app/pages/HomePage.class
auto/common/InitAppium.class
auto/common/AppiumWrapper.class
auto/common/AutoUtilities.class
app/tests/TestCase.class
auto/common/AppiumWrapper$2.class
